 ==================================================================
              SRIM version ---> SRIM-2013.00
              Calc. date   ---> August 31, 2021 
 ==================================================================

 Disk File Name = SRIM Outputs\Chlorine in Aluminum.txt

 Ion = Chlorine [17] , Mass = 37 amu

 Target Density =  2.7020E+00 g/cm3 = 6.0305E+22 atoms/cm3
 ======= Target  Composition ========
    Atom   Atom   Atomic    Mass     
    Name   Numb   Percent   Percent  
    ----   ----   -------   -------  
     Al     13    100.00    100.00   
 ====================================
 Bragg Correction = 0.00%
 Stopping Units =  MeV / mm       
 See bottom of Table for other Stopping units 

        Ion        dE/dx      dE/dx     Projected  Longitudinal   Lateral
       Energy      Elec.      Nuclear     Range     Straggling   Straggling
  --------------  ---------- ---------- ----------  ----------  ----------
  10.00 keV   1.516E+02  5.964E+02     131 A        58 A        43 A   
  11.00 keV   1.590E+02  6.018E+02     141 A        62 A        46 A   
  12.00 keV   1.660E+02  6.061E+02     150 A        65 A        48 A   
  13.00 keV   1.728E+02  6.096E+02     160 A        69 A        51 A   
  14.00 keV   1.793E+02  6.123E+02     170 A        72 A        54 A   
  15.00 keV   1.856E+02  6.143E+02     179 A        76 A        56 A   
  16.00 keV   1.917E+02  6.158E+02     189 A        79 A        59 A   
  17.00 keV   1.976E+02  6.169E+02     198 A        82 A        61 A   
  18.00 keV   2.033E+02  6.175E+02     207 A        86 A        64 A   
  20.00 keV   2.143E+02  6.179E+02     226 A        92 A        68 A   
  22.50 keV   2.273E+02  6.169E+02     249 A       100 A        74 A   
  25.00 keV   2.396E+02  6.148E+02     272 A       108 A        80 A   
  27.50 keV   2.513E+02  6.119E+02     295 A       116 A        86 A   
  30.00 keV   2.625E+02  6.084E+02     318 A       123 A        91 A   
  32.50 keV   2.732E+02  6.044E+02     340 A       131 A        96 A   
  35.00 keV   2.835E+02  6.001E+02     363 A       138 A       102 A   
  37.50 keV   2.935E+02  5.955E+02     385 A       145 A       107 A   
  40.00 keV   3.031E+02  5.908E+02     408 A       152 A       112 A   
  45.00 keV   3.215E+02  5.811E+02     453 A       166 A       122 A   
  50.00 keV   3.389E+02  5.712E+02     498 A       180 A       132 A   
  55.00 keV   3.554E+02  5.614E+02     543 A       193 A       142 A   
  60.00 keV   3.712E+02  5.516E+02     588 A       206 A       152 A   
  65.00 keV   3.864E+02  5.421E+02     632 A       218 A       162 A   
  70.00 keV   4.010E+02  5.327E+02     677 A       230 A       171 A   
  80.00 keV   4.642E+02  5.149E+02     765 A       253 A       190 A   
  90.00 keV   5.293E+02  4.982E+02     849 A       274 A       208 A   
 100.00 keV   5.737E+02  4.826E+02     930 A       293 A       225 A   
 110.00 keV   6.034E+02  4.680E+02    1011 A       311 A       242 A   
 120.00 keV   6.227E+02  4.543E+02    1091 A       329 A       258 A   
 130.00 keV   6.347E+02  4.415E+02    1172 A       346 A       273 A   
 140.00 keV   6.418E+02  4.295E+02    1253 A       363 A       288 A   
 150.00 keV   6.456E+02  4.183E+02    1335 A       380 A       303 A   
 160.00 keV   6.473E+02  4.077E+02    1418 A       397 A       318 A   
 170.00 keV   6.477E+02  3.977E+02    1502 A       413 A       332 A   
 180.00 keV   6.474E+02  3.883E+02    1588 A       430 A       346 A   
 200.00 keV   6.461E+02  3.709E+02    1762 A       463 A       375 A   
 225.00 keV   6.455E+02  3.516E+02    1985 A       505 A       410 A   
 250.00 keV   6.474E+02  3.345E+02    2213 A       546 A       446 A   
 275.00 keV   6.521E+02  3.193E+02    2445 A       586 A       481 A   
 300.00 keV   6.597E+02  3.056E+02    2680 A       626 A       517 A   
 325.00 keV   6.697E+02  2.933E+02    2917 A       665 A       553 A   
 350.00 keV   6.820E+02  2.820E+02    3155 A       702 A       588 A   
 375.00 keV   6.960E+02  2.718E+02    3393 A       738 A       624 A   
 400.00 keV   7.116E+02  2.623E+02    3631 A       773 A       659 A   
 450.00 keV   7.463E+02  2.456E+02    4101 A       840 A       728 A   
 500.00 keV   7.844E+02  2.312E+02    4564 A       902 A       795 A   
 550.00 keV   8.247E+02  2.186E+02    5016 A       959 A       860 A   
 600.00 keV   8.664E+02  2.075E+02    5458 A      1011 A       922 A   
 650.00 keV   9.089E+02  1.976E+02    5888 A      1059 A       981 A   
 700.00 keV   9.516E+02  1.888E+02    6307 A      1103 A      1037 A   
 800.00 keV   1.037E+03  1.736E+02    7111 A      1183 A      1142 A   
 900.00 keV   1.120E+03  1.609E+02    7874 A      1252 A      1236 A   
   1.00 MeV   1.201E+03  1.502E+02    8598 A      1312 A      1322 A   
   1.10 MeV   1.278E+03  1.410E+02    9289 A      1364 A      1400 A   
   1.20 MeV   1.352E+03  1.330E+02    9950 A      1410 A      1471 A   
   1.30 MeV   1.423E+03  1.259E+02    1.06 um     1451 A      1536 A   
   1.40 MeV   1.491E+03  1.197E+02    1.12 um     1488 A      1597 A   
   1.50 MeV   1.556E+03  1.141E+02    1.18 um     1522 A      1652 A   
   1.60 MeV   1.618E+03  1.091E+02    1.24 um     1553 A      1704 A   
   1.70 MeV   1.677E+03  1.046E+02    1.29 um     1581 A      1752 A   
   1.80 MeV   1.733E+03  1.004E+02    1.34 um     1606 A      1798 A   
   2.00 MeV   1.839E+03  9.314E+01    1.45 um     1656 A      1880 A   
   2.25 MeV   1.959E+03  8.556E+01    1.57 um     1710 A      1971 A   
   2.50 MeV   2.070E+03  7.923E+01    1.69 um     1757 A      2051 A   
   2.75 MeV   2.171E+03  7.387E+01    1.80 um     1797 A      2123 A   
   3.00 MeV   2.264E+03  6.926E+01    1.91 um     1834 A      2188 A   
   3.25 MeV   2.352E+03  6.524E+01    2.01 um     1866 A      2247 A   
   3.50 MeV   2.434E+03  6.171E+01    2.11 um     1895 A      2301 A   
   3.75 MeV   2.511E+03  5.858E+01    2.21 um     1922 A      2350 A   
   4.00 MeV   2.584E+03  5.578E+01    2.30 um     1946 A      2397 A   
   4.50 MeV   2.719E+03  5.098E+01    2.49 um     1998 A      2480 A   
   5.00 MeV   2.842E+03  4.701E+01    2.66 um     2043 A      2554 A   
   5.50 MeV   2.955E+03  4.366E+01    2.83 um     2083 A      2620 A   
   6.00 MeV   3.059E+03  4.080E+01    2.99 um     2119 A      2680 A   
   6.50 MeV   3.155E+03  3.832E+01    3.15 um     2151 A      2734 A   
   7.00 MeV   3.245E+03  3.615E+01    3.30 um     2181 A      2785 A   
   8.00 MeV   3.405E+03  3.253E+01    3.60 um     2253 A      2875 A   
   9.00 MeV   3.544E+03  2.961E+01    3.88 um     2316 A      2953 A   
  10.00 MeV   3.667E+03  2.722E+01    4.16 um     2372 A      3024 A   
  11.00 MeV   3.774E+03  2.521E+01    4.42 um     2423 A      3087 A   
  12.00 MeV   3.869E+03  2.350E+01    4.68 um     2470 A      3145 A   
  13.00 MeV   3.953E+03  2.202E+01    4.94 um     2513 A      3199 A   
  14.00 MeV   4.028E+03  2.073E+01    5.18 um     2553 A      3249 A   
  15.00 MeV   4.095E+03  1.960E+01    5.43 um     2591 A      3296 A   
  16.00 MeV   4.154E+03  1.859E+01    5.67 um     2627 A      3340 A   
  17.00 MeV   4.208E+03  1.768E+01    5.91 um     2661 A      3382 A   
  18.00 MeV   4.256E+03  1.687E+01    6.14 um     2694 A      3421 A   
  20.00 MeV   4.339E+03  1.547E+01    6.60 um     2794 A      3495 A   
  22.50 MeV   4.420E+03  1.403E+01    7.17 um     2931 A      3580 A   
  25.00 MeV   4.484E+03  1.285E+01    7.73 um     3057 A      3658 A   
  27.50 MeV   4.533E+03  1.187E+01    8.28 um     3174 A      3730 A   
  30.00 MeV   4.570E+03  1.104E+01    8.83 um     3285 A      3799 A   
  32.50 MeV   4.598E+03  1.032E+01    9.37 um     3390 A      3863 A   
  35.00 MeV   4.618E+03  9.695E+00    9.91 um     3490 A      3925 A   
  37.50 MeV   4.631E+03  9.147E+00   10.45 um     3587 A      3984 A   
  40.00 MeV   4.639E+03  8.662E+00   10.99 um     3680 A      4040 A   
  45.00 MeV   4.642E+03  7.839E+00   12.07 um     4006 A      4149 A   
  50.00 MeV   4.631E+03  7.168E+00   13.14 um     4307 A      4252 A   
  55.00 MeV   4.610E+03  6.609E+00   14.22 um     4590 A      4351 A   
  60.00 MeV   4.581E+03  6.136E+00   15.31 um     4859 A      4446 A   
  65.00 MeV   4.546E+03  5.729E+00   16.40 um     5117 A      4539 A   
  70.00 MeV   4.507E+03  5.377E+00   17.50 um     5366 A      4630 A   
  80.00 MeV   4.419E+03  4.794E+00   19.74 um     6258 A      4808 A   
  90.00 MeV   4.275E+03  4.331E+00   22.04 um     7078 A      4982 A   
 100.00 MeV   4.160E+03  3.954E+00   24.41 um     7856 A      5157 A   
-----------------------------------------------------------
 Multiply Stopping by        for Stopping Units
 -------------------        ------------------
  1.0000E-01                 eV / Angstrom 
  1.0000E+00                keV / micron   
  1.0000E+00                MeV / mm       
  3.7011E-03                keV / (ug/cm2) 
  3.7011E-03                MeV / (mg/cm2) 
  3.7011E+00                keV / (mg/cm2) 
  1.6582E-01                 eV / (1E15 atoms/cm2)
  5.3428E-04                L.S.S. reduced units
 ==================================================================
 (C) 1984,1989,1992,1998,2008 by J.P. Biersack and J.F. Ziegler
