 ==================================================================
              SRIM version ---> SRIM-2013.00
              Calc. date   ---> August 31, 2021 
 ==================================================================

 Disk File Name = SRIM Outputs\Potassium in Aluminum.txt

 Ion = Potassium [19] , Mass = 37 amu

 Target Density =  2.7020E+00 g/cm3 = 6.0305E+22 atoms/cm3
 ======= Target  Composition ========
    Atom   Atom   Atomic    Mass     
    Name   Numb   Percent   Percent  
    ----   ----   -------   -------  
     Al     13    100.00    100.00   
 ====================================
 Bragg Correction = 0.00%
 Stopping Units =  MeV / mm       
 See bottom of Table for other Stopping units 

        Ion        dE/dx      dE/dx     Projected  Longitudinal   Lateral
       Energy      Elec.      Nuclear     Range     Straggling   Straggling
  --------------  ---------- ---------- ----------  ----------  ----------
  10.00 keV   1.307E+02  6.487E+02     125 A        57 A        42 A   
  11.00 keV   1.370E+02  6.557E+02     134 A        60 A        45 A   
  12.00 keV   1.431E+02  6.615E+02     143 A        64 A        47 A   
  13.00 keV   1.490E+02  6.662E+02     152 A        67 A        50 A   
  14.00 keV   1.546E+02  6.700E+02     161 A        71 A        52 A   
  15.00 keV   1.600E+02  6.731E+02     170 A        74 A        55 A   
  16.00 keV   1.653E+02  6.756E+02     179 A        77 A        57 A   
  17.00 keV   1.704E+02  6.776E+02     188 A        81 A        60 A   
  18.00 keV   1.753E+02  6.790E+02     197 A        84 A        62 A   
  20.00 keV   1.848E+02  6.809E+02     215 A        90 A        67 A   
  22.50 keV   1.960E+02  6.815E+02     237 A        98 A        72 A   
  25.00 keV   2.066E+02  6.807E+02     259 A       106 A        78 A   
  27.50 keV   2.167E+02  6.789E+02     280 A       114 A        83 A   
  30.00 keV   2.263E+02  6.763E+02     302 A       121 A        89 A   
  32.50 keV   2.356E+02  6.731E+02     323 A       128 A        94 A   
  35.00 keV   2.444E+02  6.695E+02     345 A       136 A        99 A   
  37.50 keV   2.530E+02  6.655E+02     366 A       143 A       104 A   
  40.00 keV   2.613E+02  6.612E+02     388 A       150 A       110 A   
  45.00 keV   2.772E+02  6.522E+02     431 A       164 A       120 A   
  50.00 keV   2.922E+02  6.428E+02     474 A       178 A       130 A   
  55.00 keV   3.064E+02  6.332E+02     517 A       191 A       139 A   
  60.00 keV   3.201E+02  6.235E+02     560 A       204 A       149 A   
  65.00 keV   3.331E+02  6.140E+02     603 A       217 A       159 A   
  70.00 keV   3.457E+02  6.045E+02     647 A       230 A       168 A   
  80.00 keV   3.897E+02  5.863E+02     732 A       254 A       187 A   
  90.00 keV   4.371E+02  5.689E+02     816 A       277 A       205 A   
 100.00 keV   4.751E+02  5.525E+02     898 A       298 A       223 A   
 110.00 keV   5.059E+02  5.371E+02     980 A       319 A       241 A   
 120.00 keV   5.314E+02  5.225E+02    1061 A       338 A       258 A   
 130.00 keV   5.528E+02  5.088E+02    1141 A       357 A       274 A   
 140.00 keV   5.711E+02  4.958E+02    1222 A       376 A       290 A   
 150.00 keV   5.871E+02  4.836E+02    1302 A       394 A       306 A   
 160.00 keV   6.012E+02  4.721E+02    1383 A       412 A       322 A   
 170.00 keV   6.139E+02  4.612E+02    1464 A       429 A       337 A   
 180.00 keV   6.254E+02  4.508E+02    1545 A       446 A       352 A   
 200.00 keV   6.461E+02  4.317E+02    1708 A       479 A       382 A   
 225.00 keV   6.689E+02  4.103E+02    1913 A       520 A       418 A   
 250.00 keV   6.896E+02  3.912E+02    2119 A       559 A       454 A   
 275.00 keV   7.091E+02  3.742E+02    2326 A       596 A       488 A   
 300.00 keV   7.279E+02  3.588E+02    2533 A       632 A       523 A   
 325.00 keV   7.463E+02  3.448E+02    2741 A       667 A       556 A   
 350.00 keV   7.645E+02  3.320E+02    2948 A       700 A       590 A   
 375.00 keV   7.827E+02  3.203E+02    3155 A       733 A       622 A   
 400.00 keV   8.007E+02  3.096E+02    3361 A       764 A       654 A   
 450.00 keV   8.370E+02  2.904E+02    3771 A       824 A       717 A   
 500.00 keV   8.736E+02  2.738E+02    4176 A       880 A       777 A   
 550.00 keV   9.103E+02  2.593E+02    4576 A       931 A       835 A   
 600.00 keV   9.473E+02  2.465E+02    4970 A       980 A       891 A   
 650.00 keV   9.844E+02  2.350E+02    5357 A      1025 A       945 A   
 700.00 keV   1.022E+03  2.247E+02    5736 A      1067 A       997 A   
 800.00 keV   1.096E+03  2.070E+02    6474 A      1145 A      1094 A   
 900.00 keV   1.169E+03  1.922E+02    7184 A      1214 A      1183 A   
   1.00 MeV   1.241E+03  1.797E+02    7867 A      1274 A      1266 A   
   1.10 MeV   1.312E+03  1.689E+02    8523 A      1328 A      1342 A   
   1.20 MeV   1.382E+03  1.594E+02    9156 A      1377 A      1412 A   
   1.30 MeV   1.450E+03  1.511E+02    9766 A      1420 A      1477 A   
   1.40 MeV   1.516E+03  1.438E+02    1.04 um     1460 A      1538 A   
   1.50 MeV   1.580E+03  1.372E+02    1.09 um     1496 A      1594 A   
   1.60 MeV   1.642E+03  1.312E+02    1.15 um     1528 A      1647 A   
   1.70 MeV   1.703E+03  1.258E+02    1.20 um     1559 A      1697 A   
   1.80 MeV   1.762E+03  1.209E+02    1.25 um     1586 A      1743 A   
   2.00 MeV   1.875E+03  1.123E+02    1.35 um     1639 A      1829 A   
   2.25 MeV   2.008E+03  1.032E+02    1.47 um     1697 A      1923 A   
   2.50 MeV   2.131E+03  9.568E+01    1.59 um     1746 A      2006 A   
   2.75 MeV   2.246E+03  8.927E+01    1.69 um     1789 A      2081 A   
   3.00 MeV   2.354E+03  8.376E+01    1.80 um     1827 A      2148 A   
   3.25 MeV   2.455E+03  7.895E+01    1.89 um     1861 A      2209 A   
   3.50 MeV   2.550E+03  7.472E+01    1.99 um     1891 A      2265 A   
   3.75 MeV   2.639E+03  7.096E+01    2.08 um     1918 A      2316 A   
   4.00 MeV   2.723E+03  6.760E+01    2.17 um     1944 A      2363 A   
   4.50 MeV   2.878E+03  6.183E+01    2.34 um     1995 A      2449 A   
   5.00 MeV   3.018E+03  5.705E+01    2.51 um     2040 A      2524 A   
   5.50 MeV   3.145E+03  5.302E+01    2.67 um     2079 A      2592 A   
   6.00 MeV   3.261E+03  4.958E+01    2.82 um     2115 A      2653 A   
   6.50 MeV   3.368E+03  4.659E+01    2.97 um     2146 A      2708 A   
   7.00 MeV   3.466E+03  4.397E+01    3.11 um     2176 A      2759 A   
   8.00 MeV   3.641E+03  3.959E+01    3.39 um     2244 A      2850 A   
   9.00 MeV   3.793E+03  3.607E+01    3.65 um     2304 A      2930 A   
  10.00 MeV   3.928E+03  3.316E+01    3.91 um     2356 A      3001 A   
  11.00 MeV   4.047E+03  3.073E+01    4.15 um     2404 A      3065 A   
  12.00 MeV   4.155E+03  2.866E+01    4.39 um     2448 A      3123 A   
  13.00 MeV   4.252E+03  2.686E+01    4.63 um     2488 A      3177 A   
  14.00 MeV   4.340E+03  2.530E+01    4.86 um     2526 A      3227 A   
  15.00 MeV   4.421E+03  2.392E+01    5.09 um     2561 A      3274 A   
  16.00 MeV   4.494E+03  2.270E+01    5.31 um     2594 A      3317 A   
  17.00 MeV   4.563E+03  2.160E+01    5.53 um     2626 A      3359 A   
  18.00 MeV   4.625E+03  2.061E+01    5.74 um     2656 A      3398 A   
  20.00 MeV   4.737E+03  1.890E+01    6.17 um     2745 A      3471 A   
  22.50 MeV   4.856E+03  1.715E+01    6.69 um     2865 A      3554 A   
  25.00 MeV   4.956E+03  1.572E+01    7.19 um     2974 A      3630 A   
  27.50 MeV   5.039E+03  1.452E+01    7.69 um     3076 A      3699 A   
  30.00 MeV   5.110E+03  1.351E+01    8.18 um     3170 A      3764 A   
  32.50 MeV   5.168E+03  1.263E+01    8.67 um     3259 A      3825 A   
  35.00 MeV   5.217E+03  1.187E+01    9.15 um     3344 A      3883 A   
  37.50 MeV   5.258E+03  1.120E+01    9.62 um     3425 A      3938 A   
  40.00 MeV   5.291E+03  1.061E+01   10.10 um     3503 A      3991 A   
  45.00 MeV   5.338E+03  9.608E+00   11.03 um     3768 A      4090 A   
  50.00 MeV   5.363E+03  8.788E+00   11.97 um     4013 A      4183 A   
  55.00 MeV   5.372E+03  8.104E+00   12.89 um     4241 A      4271 A   
  60.00 MeV   5.368E+03  7.526E+00   13.82 um     4458 A      4355 A   
  65.00 MeV   5.353E+03  7.029E+00   14.75 um     4664 A      4436 A   
  70.00 MeV   5.329E+03  6.598E+00   15.69 um     4863 A      4514 A   
  80.00 MeV   5.261E+03  5.884E+00   17.57 um     5573 A      4665 A   
  90.00 MeV   5.116E+03  5.318E+00   19.50 um     6226 A      4812 A   
 100.00 MeV   4.998E+03  4.856E+00   21.47 um     6846 A      4957 A   
-----------------------------------------------------------
 Multiply Stopping by        for Stopping Units
 -------------------        ------------------
  1.0000E-01                 eV / Angstrom 
  1.0000E+00                keV / micron   
  1.0000E+00                MeV / mm       
  3.7011E-03                keV / (ug/cm2) 
  3.7011E-03                MeV / (mg/cm2) 
  3.7011E+00                keV / (mg/cm2) 
  1.6582E-01                 eV / (1E15 atoms/cm2)
  4.8796E-04                L.S.S. reduced units
 ==================================================================
 (C) 1984,1989,1992,1998,2008 by J.P. Biersack and J.F. Ziegler
